[
  {
    "id": "day-that-the-world-breaks-down",
    "title": "The Day That the World Breaks Down",
    "albumId": "source"
  },
  {
    "id": "sea-of-machines",
    "title": "Sea of Machines",
    "albumId": "source"
  },
  {
    "id": "everybody-dies",
    "title": "Everybody Dies",
    "albumId": "source"
  },
  {
    "id": "star-of-sirrah",
    "title": "Star of Sirrah",
    "albumId": "source"
  },
  {
    "id": "all-that-was",
    "title": "All That Was",
    "albumId": "source"
  },
  {
    "id": "run-apocalypse-run",
    "title": "Run! Apocalypse! Run!",
    "albumId": "source"
  },
  {
    "id": "condemned-to-live",
    "title": "Condemned to Live",
    "albumId": "source"
  },
  {
    "id": "aquatic-race",
    "title": "Aquatic Race",
    "albumId": "source"
  },
  {
    "id": "dream-dissolves",
    "title": "The Dream Dissolves",
    "albumId": "source"
  },
  {
    "id": "deathcry-of-a-race",
    "title": "Deathcry of a Race",
    "albumId": "source"
  },
  {
    "id": "into-the-ocean",
    "title": "Into the Ocean",
    "albumId": "source"
  },
  {
    "id": "bay-of-dreams",
    "title": "Bay of Dreams",
    "albumId": "source"
  },
  {
    "id": "planet-y-is-alive",
    "title": "Planet Y Is Alive!",
    "albumId": "source"
  },
  {
    "id": "source-will-flow",
    "title": "The Source Will Flow",
    "albumId": "source"
  },
  {
    "id": "journey-to-forever",
    "title": "Journey to Forever",
    "albumId": "source"
  },
  {
    "id": "human-compulsion",
    "title": "The Human Compulsion",
    "albumId": "source"
  },
  {
    "id": "march-of-the-machines",
    "title": "March of the Machines",
    "albumId": "source"
  },
  {
    "id": "prologue-the-blackboard",
    "title": "Prologue: The Blackboard",
    "albumId": "theory-of-everything"
  },
  {
    "id": "the-theory-of-everything-part-1",
    "title": "The Theory of Everything Part 1",
    "albumId": "theory-of-everything"
  },
  {
    "id": "patterns",
    "title": "Patterns",
    "albumId": "theory-of-everything"
  },
  {
    "id": "the-prodigys-world",
    "title": "The Prodigy's World",
    "albumId": "theory-of-everything"
  },
  {
    "id": "the-teachers-discovery",
    "title": "The Teacher's Discovery",
    "albumId": "theory-of-everything"
  },
  {
    "id": "love-and-envy",
    "title": "Love and Envy",
    "albumId": "theory-of-everything"
  },
  {
    "id": "progressive-waves",
    "title": "Progressive Waves",
    "albumId": "theory-of-everything"
  },
  {
    "id": "the-gift",
    "title": "The Gift",
    "albumId": "theory-of-everything"
  },
  {
    "id": "the-eleventh-dimension",
    "title": "The Eleventh Dimension",
    "albumId": "theory-of-everything"
  },
  {
    "id": "inertia",
    "title": "Inertia",
    "albumId": "theory-of-everything"
  },
  {
    "id": "the-theory-of-everything-part-2",
    "title": "The Theory of Everything Part 2",
    "albumId": "theory-of-everything"
  },
  {
    "id": "the-consultation",
    "title": "The Consultation",
    "albumId": "theory-of-everything"
  },
  {
    "id": "diagnosis",
    "title": "Diagnosis",
    "albumId": "theory-of-everything"
  },
  {
    "id": "the-argument-1",
    "title": "The Argument 1",
    "albumId": "theory-of-everything"
  },
  {
    "id": "the-rivals-dilemma",
    "title": "The Rival's Dilemma",
    "albumId": "theory-of-everything"
  },
  {
    "id": "surface-tension",
    "title": "Surface Tension",
    "albumId": "theory-of-everything"
  },
  {
    "id": "a-reason-to-live",
    "title": "A Reason to Live",
    "albumId": "theory-of-everything"
  },
  {
    "id": "potential",
    "title": "Potential",
    "albumId": "theory-of-everything"
  },
  {
    "id": "quantum-chaos",
    "title": "Quantum Chaos",
    "albumId": "theory-of-everything"
  },
  {
    "id": "dark-medicine",
    "title": "Dark Medicine",
    "albumId": "theory-of-everything"
  },
  {
    "id": "alive",
    "title": "Alive!",
    "albumId": "theory-of-everything"
  },
  {
    "id": "the-prediction",
    "title": "The Prediction",
    "albumId": "theory-of-everything"
  },
  {
    "id": "fluctuations",
    "title": "Fluctuations",
    "albumId": "theory-of-everything"
  },
  {
    "id": "transformation",
    "title": "Transformation",
    "albumId": "theory-of-everything"
  },
  {
    "id": "collision",
    "title": "Collision",
    "albumId": "theory-of-everything"
  },
  {
    "id": "side-effects",
    "title": "Side Effects",
    "albumId": "theory-of-everything"
  },
  {
    "id": "frequency-modulation",
    "title": "Frequency Modulation",
    "albumId": "theory-of-everything"
  },
  {
    "id": "magnetism",
    "title": "Magnetism",
    "albumId": "theory-of-everything"
  },
  {
    "id": "quid-pro-quo",
    "title": "Quid Pro Quo",
    "albumId": "theory-of-everything"
  },
  {
    "id": "string-theory",
    "title": "String Theory",
    "albumId": "theory-of-everything"
  },
  {
    "id": "fortune",
    "title": "Fortune?",
    "albumId": "theory-of-everything"
  },
  {
    "id": "mirror-of-dreams",
    "title": "Mirror of Dreams",
    "albumId": "theory-of-everything"
  },
  {
    "id": "the-lighthouse",
    "title": "The Lighthouse",
    "albumId": "theory-of-everything"
  },
  {
    "id": "the-argument-2",
    "title": "The Argument 2",
    "albumId": "theory-of-everything"
  },
  {
    "id": "the-parting",
    "title": "The Parting",
    "albumId": "theory-of-everything"
  },
  {
    "id": "the-visitation",
    "title": "The Visitation",
    "albumId": "theory-of-everything"
  },
  {
    "id": "the-breakthrough",
    "title": "The Breakthrough",
    "albumId": "theory-of-everything"
  },
  {
    "id": "the-note",
    "title": "The Note",
    "albumId": "theory-of-everything"
  },
  {
    "id": "the-uncertainty-principle",
    "title": "The Uncertainty Principle",
    "albumId": "theory-of-everything"
  },
  {
    "id": "dark-energy",
    "title": "Dark Energy",
    "albumId": "theory-of-everything"
  },
  {
    "id": "the-theory-of-everything-part-3",
    "title": "The Theory of Everything Part 3",
    "albumId": "theory-of-everything"
  },
  {
    "id": "the-blackboard-reprise",
    "title": "The Blackboard (Reprise)",
    "albumId": "theory-of-everything"
  },
  {
    "id": "age-of-shadows",
    "title": "Age of Shadows",
    "albumId": "01011001"
  },
  {
    "id": "comatose",
    "title": "Comatose",
    "albumId": "01011001"
  },
  {
    "id": "liquid-eternity",
    "title": "Liquid Eternity",
    "albumId": "01011001"
  },
  {
    "id": "connect-the-dots",
    "title": "Connect the Dots",
    "albumId": "01011001"
  },
  {
    "id": "beneath-the-waves",
    "title": "Beneath the Waves",
    "albumId": "01011001"
  },
  {
    "id": "newborn-race",
    "title": "Newborn Race",
    "albumId": "01011001"
  },
  {
    "id": "ride-the-comet",
    "title": "Ride the Comet",
    "albumId": "01011001"
  },
  {
    "id": "web-of-lies",
    "title": "Web of Lies",
    "albumId": "01011001"
  },
  {
    "id": "the-fifth-extinction",
    "title": "The Fifth Extinction",
    "albumId": "01011001"
  },
  {
    "id": "waking-dreams",
    "title": "Waking Dreams",
    "albumId": "01011001"
  },
  {
    "id": "the-truth-is-in-here",
    "title": "The Truth Is in Here",
    "albumId": "01011001"
  },
  {
    "id": "unnatural-selection",
    "title": "Unnatural Selection",
    "albumId": "01011001"
  },
  {
    "id": "river-of-time",
    "title": "River of Time",
    "albumId": "01011001"
  },
  {
    "id": "e-mc-2",
    "title": "E=mc2",
    "albumId": "01011001"
  },
  {
    "id": "the-sixth-extinction",
    "title": "The Sixth Extinction",
    "albumId": "01011001"
  }
]
